[
{ 
    "_id" : ObjectId("5a576a6f0bd7390df779c10b"), 
    "guide" : ObjectId("5a575faf0bd7390df779c109"), 
    "place" : ObjectId("5a1fd17dcdd37c7bdf59dcaa"), 
    "lasting" : 1.5, 
    "text" : "некое описание7777777777777777777777777777777777\n описание2 \n123\n123\n123\n123\n123\n123\n123\n123\n123\n123\n123\n123\n123\n123", 
    "prices" : [
        {
            "price" : NumberInt(500), 
            "_id" : ObjectId("5a576a6f0bd7390df779c10c"), 
            "people" : [
                NumberInt(1), 
                NumberInt(5)
            ]
        }
    ], 
    "totalMark" : NumberInt(0), 
    "conductedExc" : NumberInt(0), 
    "__v" : NumberInt(0)
}
{ 
    "_id" : ObjectId("5a661f524dbac54a434f2ce9"), 
    "guide" : ObjectId("5a65b3a14dbac54a434f2ce7"), 
    "place" : ObjectId("5a251791cdd37c7bdf59dcac"), 
    "lasting" : 1.5, 
    "prices" : [
        {
            "price" : NumberInt(400), 
            "_id" : ObjectId("5a661f524dbac54a434f2cec"), 
            "people" : [
                NumberInt(1), 
                NumberInt(5)
            ]
        }, 
        {
            "price" : NumberInt(350), 
            "_id" : ObjectId("5a661f524dbac54a434f2ceb"), 
            "people" : [
                NumberInt(6), 
                NumberInt(10)
            ]
        }, 
        {
            "price" : NumberInt(300), 
            "_id" : ObjectId("5a661f524dbac54a434f2cea"), 
            "people" : [
                NumberInt(11), 
                NumberInt(20)
            ]
        }
    ], 
    "totalMark" : NumberInt(0), 
    "conductedExc" : NumberInt(0), 
    "__v" : NumberInt(0)
}
{ 
    "_id" : ObjectId("5a6623734dbac54a434f2ced"), 
    "guide" : ObjectId("5a65b3a14dbac54a434f2ce7"), 
    "place" : ObjectId("5a1fd17dcdd37c7bdf59dcaa"), 
    "lasting" : 1.5, 
    "prices" : [
        {
            "price" : NumberInt(400), 
            "_id" : ObjectId("5a6623734dbac54a434f2cf0"), 
            "people" : [
                NumberInt(1), 
                NumberInt(5)
            ]
        }, 
        {
            "price" : NumberInt(350), 
            "_id" : ObjectId("5a6623734dbac54a434f2cef"), 
            "people" : [
                NumberInt(6), 
                NumberInt(10)
            ]
        }, 
        {
            "price" : NumberInt(300), 
            "_id" : ObjectId("5a6623734dbac54a434f2cee"), 
            "people" : [
                NumberInt(11), 
                NumberInt(20)
            ]
        }
    ], 
    "totalMark" : NumberInt(0), 
    "conductedExc" : NumberInt(0), 
    "__v" : NumberInt(0)
}
{ 
    "_id" : ObjectId("5a6623cf4dbac54a434f2cf1"), 
    "guide" : ObjectId("5a65b3a14dbac54a434f2ce7"), 
    "place" : ObjectId("5a251918cdd37c7bdf59dcae"), 
    "lasting" : 1.5, 
    "prices" : [
        {
            "price" : NumberInt(400), 
            "_id" : ObjectId("5a6623cf4dbac54a434f2cf4"), 
            "people" : [
                NumberInt(1), 
                NumberInt(5)
            ]
        }, 
        {
            "price" : NumberInt(350), 
            "_id" : ObjectId("5a6623cf4dbac54a434f2cf3"), 
            "people" : [
                NumberInt(6), 
                NumberInt(10)
            ]
        }, 
        {
            "price" : NumberInt(300), 
            "_id" : ObjectId("5a6623cf4dbac54a434f2cf2"), 
            "people" : [
                NumberInt(11), 
                NumberInt(20)
            ]
        }
    ], 
    "totalMark" : NumberInt(0), 
    "conductedExc" : NumberInt(0), 
    "__v" : NumberInt(0)
}
{ 
    "_id" : ObjectId("5a6624234dbac54a434f2cf5"), 
    "guide" : ObjectId("5a65b3a14dbac54a434f2ce7"), 
    "place" : ObjectId("5a2513b0cdd37c7bdf59dcab"), 
    "lasting" : NumberInt(2), 
    "prices" : [
        {
            "price" : NumberInt(500), 
            "_id" : ObjectId("5a6624234dbac54a434f2cf6"), 
            "people" : [
                NumberInt(1), 
                NumberInt(5)
            ]
        }
    ], 
    "totalMark" : NumberInt(0), 
    "conductedExc" : NumberInt(0), 
    "__v" : NumberInt(0)
}
{ 
    "_id" : ObjectId("5a6634ff4dbac54a434f2d10"), 
    "guide" : ObjectId("5a6475304dbac54a434f2ce5"), 
    "place" : ObjectId("5a1fd17dcdd37c7bdf59dcaa"), 
    "lasting" : NumberInt(2), 
    "prices" : [
        {
            "price" : NumberInt(3000), 
            "_id" : ObjectId("5a6634ff4dbac54a434f2d12"), 
            "people" : [
                NumberInt(1), 
                NumberInt(1)
            ]
        }, 
        {
            "price" : NumberInt(1000), 
            "_id" : ObjectId("5a6634ff4dbac54a434f2d11"), 
            "people" : [
                NumberInt(2), 
                NumberInt(10)
            ]
        }
    ], 
    "totalMark" : NumberInt(0), 
    "conductedExc" : NumberInt(0), 
    "__v" : NumberInt(0)
}
{ 
    "_id" : ObjectId("5a66352c4dbac54a434f2d13"), 
    "guide" : ObjectId("5a6475304dbac54a434f2ce5"), 
    "place" : ObjectId("5a2521becdd37c7bdf59dcbb"), 
    "lasting" : NumberInt(2), 
    "prices" : [
        {
            "price" : NumberInt(3000), 
            "_id" : ObjectId("5a66352c4dbac54a434f2d15"), 
            "people" : [
                NumberInt(1), 
                NumberInt(1)
            ]
        }, 
        {
            "price" : NumberInt(1000), 
            "_id" : ObjectId("5a66352c4dbac54a434f2d14"), 
            "people" : [
                NumberInt(2), 
                NumberInt(5)
            ]
        }
    ], 
    "totalMark" : NumberInt(0), 
    "conductedExc" : NumberInt(0), 
    "__v" : NumberInt(0)
}
{ 
    "_id" : ObjectId("5a6635454dbac54a434f2d16"), 
    "guide" : ObjectId("5a6475304dbac54a434f2ce5"), 
    "place" : ObjectId("5a2513b0cdd37c7bdf59dcab"), 
    "lasting" : 1.5, 
    "prices" : [
        {
            "price" : NumberInt(3000), 
            "_id" : ObjectId("5a6635454dbac54a434f2d18"), 
            "people" : [
                NumberInt(1), 
                NumberInt(1)
            ]
        }, 
        {
            "price" : NumberInt(1000), 
            "_id" : ObjectId("5a6635454dbac54a434f2d17"), 
            "people" : [
                NumberInt(2), 
                NumberInt(5)
            ]
        }
    ], 
    "totalMark" : NumberInt(0), 
    "conductedExc" : NumberInt(0), 
    "__v" : NumberInt(0)
}
{ 
    "_id" : ObjectId("5a66357d4dbac54a434f2d19"), 
    "guide" : ObjectId("5a6475304dbac54a434f2ce5"), 
    "place" : ObjectId("5a251c92cdd37c7bdf59dcb2"), 
    "lasting" : NumberInt(2), 
    "prices" : [
        {
            "price" : NumberInt(3000), 
            "_id" : ObjectId("5a66357d4dbac54a434f2d1b"), 
            "people" : [
                NumberInt(1), 
                NumberInt(1)
            ]
        }, 
        {
            "price" : NumberInt(1000), 
            "_id" : ObjectId("5a66357d4dbac54a434f2d1a"), 
            "people" : [
                NumberInt(2), 
                NumberInt(10)
            ]
        }
    ], 
    "totalMark" : NumberInt(0), 
    "conductedExc" : NumberInt(0), 
    "__v" : NumberInt(0)
}
{ 
    "_id" : ObjectId("5a69b5ee054c1316e752b7e1"), 
    "guide" : ObjectId("5a65b3a14dbac54a434f2ce7"), 
    "place" : ObjectId("5a6880fa054c1316e752b7df"), 
    "lasting" : NumberInt(2), 
    "prices" : [
        {
            "price" : NumberInt(450), 
            "_id" : ObjectId("5a69b5ee054c1316e752b7e4"), 
            "people" : [
                NumberInt(1), 
                NumberInt(5)
            ]
        }, 
        {
            "price" : NumberInt(350), 
            "_id" : ObjectId("5a69b5ee054c1316e752b7e3"), 
            "people" : [
                NumberInt(6), 
                NumberInt(11)
            ]
        }, 
        {
            "price" : NumberInt(300), 
            "_id" : ObjectId("5a69b5ee054c1316e752b7e2"), 
            "people" : [
                NumberInt(12), 
                NumberInt(20)
            ]
        }
    ], 
    "totalMark" : NumberInt(0), 
    "conductedExc" : NumberInt(0), 
    "__v" : NumberInt(0)
}
{ 
    "_id" : ObjectId("5a69b747054c1316e752b7ed"), 
    "guide" : ObjectId("5a65b3a14dbac54a434f2ce7"), 
    "place" : ObjectId("5a6883fd054c1316e752b7e0"), 
    "lasting" : NumberInt(2), 
    "prices" : [
        {
            "price" : NumberInt(450), 
            "_id" : ObjectId("5a69b747054c1316e752b7f0"), 
            "people" : [
                NumberInt(1), 
                NumberInt(5)
            ]
        }, 
        {
            "price" : NumberInt(350), 
            "_id" : ObjectId("5a69b747054c1316e752b7ef"), 
            "people" : [
                NumberInt(6), 
                NumberInt(10)
            ]
        }, 
        {
            "price" : NumberInt(300), 
            "_id" : ObjectId("5a69b747054c1316e752b7ee"), 
            "people" : [
                NumberInt(11), 
                NumberInt(20)
            ]
        }
    ], 
    "totalMark" : NumberInt(0), 
    "conductedExc" : NumberInt(0), 
    "__v" : NumberInt(0)
}
{ 
    "_id" : ObjectId("5a69bb28054c1316e752b7f1"), 
    "guide" : ObjectId("5a65b3a14dbac54a434f2ce7"), 
    "place" : ObjectId("5a687772054c1316e752b7de"), 
    "lasting" : 2.5, 
    "prices" : [
        {
            "price" : NumberInt(550), 
            "_id" : ObjectId("5a69bb28054c1316e752b7f4"), 
            "people" : [
                NumberInt(1), 
                NumberInt(5)
            ]
        }, 
        {
            "price" : NumberInt(450), 
            "_id" : ObjectId("5a69bb28054c1316e752b7f3"), 
            "people" : [
                NumberInt(6), 
                NumberInt(10)
            ]
        }, 
        {
            "price" : NumberInt(350), 
            "_id" : ObjectId("5a69bb28054c1316e752b7f2"), 
            "people" : [
                NumberInt(11), 
                NumberInt(25)
            ]
        }
    ], 
    "totalMark" : NumberInt(0), 
    "conductedExc" : NumberInt(0), 
    "__v" : NumberInt(0)
}
{ 
    "_id" : ObjectId("5a6c7c2a054c1316e752b7f8"), 
    "guide" : ObjectId("5a6c75cb054c1316e752b7f5"), 
    "place" : ObjectId("5a6c7bc2054c1316e752b7f7"), 
    "lasting" : NumberInt(2), 
    "prices" : [
        {
            "price" : NumberInt(1000), 
            "_id" : ObjectId("5a6c7c2a054c1316e752b7f9"), 
            "people" : [
                NumberInt(1), 
                NumberInt(5)
            ]
        }
    ], 
    "totalMark" : NumberInt(0), 
    "conductedExc" : NumberInt(0), 
    "__v" : NumberInt(0)
}
{ 
    "_id" : ObjectId("5a6c7c48054c1316e752b7fa"), 
    "guide" : ObjectId("5a6c75cb054c1316e752b7f5"), 
    "place" : ObjectId("5a1fd17dcdd37c7bdf59dcaa"), 
    "lasting" : NumberInt(2), 
    "prices" : [
        {
            "price" : NumberInt(1000), 
            "_id" : ObjectId("5a6c7c48054c1316e752b7fb"), 
            "people" : [
                NumberInt(1), 
                NumberInt(5)
            ]
        }
    ], 
    "totalMark" : NumberInt(0), 
    "conductedExc" : NumberInt(0), 
    "__v" : NumberInt(0)
}
{ 
    "_id" : ObjectId("5a6c7c62054c1316e752b7fc"), 
    "guide" : ObjectId("5a6c75cb054c1316e752b7f5"), 
    "place" : ObjectId("5a251ce1cdd37c7bdf59dcb3"), 
    "lasting" : NumberInt(2), 
    "prices" : [
        {
            "price" : NumberInt(1000), 
            "_id" : ObjectId("5a6c7c62054c1316e752b7fd"), 
            "people" : [
                NumberInt(1), 
                NumberInt(5)
            ]
        }
    ], 
    "totalMark" : NumberInt(0), 
    "conductedExc" : NumberInt(0), 
    "__v" : NumberInt(0)
}
{ 
    "_id" : ObjectId("5a6cc0b3054c1316e752b802"), 
    "guide" : ObjectId("5a6cbb9b054c1316e752b800"), 
    "place" : ObjectId("5a26b8d6cdd37c7bdf59dcc0"), 
    "lasting" : 2.5, 
    "prices" : [
        {
            "price" : NumberInt(0), 
            "_id" : ObjectId("5a6cc0b3054c1316e752b803"), 
            "people" : [
                NumberInt(1), 
                NumberInt(1)
            ]
        }
    ], 
    "totalMark" : NumberInt(0), 
    "conductedExc" : NumberInt(0), 
    "__v" : NumberInt(0)
}
{ 
    "_id" : ObjectId("5a6cc0d0054c1316e752b804"), 
    "guide" : ObjectId("5a6cb6de054c1316e752b7fe"), 
    "place" : ObjectId("5a251791cdd37c7bdf59dcac"), 
    "lasting" : NumberInt(2), 
    "prices" : [
        {
            "price" : NumberInt(3000), 
            "_id" : ObjectId("5a6cc0d0054c1316e752b805"), 
            "people" : [
                NumberInt(1), 
                NumberInt(0)
            ]
        }
    ], 
    "totalMark" : NumberInt(0), 
    "conductedExc" : NumberInt(0), 
    "__v" : NumberInt(0)
}
{ 
    "_id" : ObjectId("5a6cc0e8054c1316e752b806"), 
    "guide" : ObjectId("5a6cb6de054c1316e752b7fe"), 
    "place" : ObjectId("5a251e99cdd37c7bdf59dcb5"), 
    "lasting" : NumberInt(1), 
    "prices" : [
        {
            "price" : NumberInt(3500), 
            "_id" : ObjectId("5a6cc0e8054c1316e752b807"), 
            "people" : [
                NumberInt(1), 
                NumberInt(0)
            ]
        }
    ], 
    "totalMark" : NumberInt(0), 
    "conductedExc" : NumberInt(0), 
    "__v" : NumberInt(0)
}
{ 
    "_id" : ObjectId("5a6cc104054c1316e752b808"), 
    "guide" : ObjectId("5a6cb6de054c1316e752b7fe"), 
    "place" : ObjectId("5a251ce1cdd37c7bdf59dcb3"), 
    "lasting" : NumberInt(2), 
    "prices" : [
        {
            "price" : NumberInt(3500), 
            "_id" : ObjectId("5a6cc104054c1316e752b809"), 
            "people" : [
                NumberInt(1), 
                NumberInt(0)
            ]
        }
    ], 
    "totalMark" : NumberInt(0), 
    "conductedExc" : NumberInt(0), 
    "__v" : NumberInt(0)
}
{ 
    "_id" : ObjectId("5a6cc120054c1316e752b80a"), 
    "guide" : ObjectId("5a6cb6de054c1316e752b7fe"), 
    "place" : ObjectId("5a251d26cdd37c7bdf59dcb4"), 
    "lasting" : 1.5, 
    "prices" : [
        {
            "price" : NumberInt(3500), 
            "_id" : ObjectId("5a6cc120054c1316e752b80b"), 
            "people" : [
                NumberInt(1), 
                NumberInt(0)
            ]
        }
    ], 
    "totalMark" : NumberInt(0), 
    "conductedExc" : NumberInt(0), 
    "__v" : NumberInt(0)
}
{ 
    "_id" : ObjectId("5a6cc130054c1316e752b80c"), 
    "guide" : ObjectId("5a6cb6de054c1316e752b7fe"), 
    "place" : ObjectId("5a1fd17dcdd37c7bdf59dcaa"), 
    "lasting" : NumberInt(1), 
    "prices" : [
        {
            "price" : NumberInt(3500), 
            "_id" : ObjectId("5a6cc130054c1316e752b80d"), 
            "people" : [
                NumberInt(1), 
                NumberInt(0)
            ]
        }
    ], 
    "totalMark" : NumberInt(0), 
    "conductedExc" : NumberInt(0), 
    "__v" : NumberInt(0)
}
{ 
    "_id" : ObjectId("5a6cc150054c1316e752b80e"), 
    "guide" : ObjectId("5a6cb6de054c1316e752b7fe"), 
    "place" : ObjectId("5a6883fd054c1316e752b7e0"), 
    "lasting" : NumberInt(1), 
    "prices" : [
        {
            "price" : NumberInt(3500), 
            "_id" : ObjectId("5a6cc150054c1316e752b80f"), 
            "people" : [
                NumberInt(1), 
                NumberInt(0)
            ]
        }
    ], 
    "totalMark" : NumberInt(0), 
    "conductedExc" : NumberInt(0), 
    "__v" : NumberInt(0)
}
{ 
    "_id" : ObjectId("5a6cc167054c1316e752b810"), 
    "guide" : ObjectId("5a6cb6de054c1316e752b7fe"), 
    "place" : ObjectId("5a251b03cdd37c7bdf59dcb0"), 
    "lasting" : 4.5, 
    "prices" : [
        {
            "price" : NumberInt(3500), 
            "_id" : ObjectId("5a6cc167054c1316e752b811"), 
            "people" : [
                NumberInt(1), 
                NumberInt(1)
            ]
        }
    ], 
    "totalMark" : NumberInt(0), 
    "conductedExc" : NumberInt(0), 
    "__v" : NumberInt(0)
}
{ 
    "_id" : ObjectId("5a6cc175054c1316e752b812"), 
    "guide" : ObjectId("5a6cb6de054c1316e752b7fe"), 
    "place" : ObjectId("5a2521becdd37c7bdf59dcbb"), 
    "lasting" : NumberInt(1), 
    "prices" : [
        {
            "price" : NumberInt(3500), 
            "_id" : ObjectId("5a6cc175054c1316e752b813"), 
            "people" : [
                NumberInt(1), 
                NumberInt(0)
            ]
        }
    ], 
    "totalMark" : NumberInt(0), 
    "conductedExc" : NumberInt(0), 
    "__v" : NumberInt(0)
}
{ 
    "_id" : ObjectId("5a6cc198054c1316e752b814"), 
    "guide" : ObjectId("5a6cb6de054c1316e752b7fe"), 
    "place" : ObjectId("5a27fbf0cdd37c7bdf59dcc3"), 
    "lasting" : NumberInt(1), 
    "prices" : [
        {
            "price" : NumberInt(3500), 
            "_id" : ObjectId("5a6cc198054c1316e752b815"), 
            "people" : [
                NumberInt(1), 
                NumberInt(0)
            ]
        }
    ], 
    "totalMark" : NumberInt(0), 
    "conductedExc" : NumberInt(0), 
    "__v" : NumberInt(0)
}
{ 
    "_id" : ObjectId("5a6cc1b1054c1316e752b816"), 
    "guide" : ObjectId("5a6cb6de054c1316e752b7fe"), 
    "place" : ObjectId("5a2513b0cdd37c7bdf59dcab"), 
    "lasting" : NumberInt(1), 
    "prices" : [
        {
            "price" : NumberInt(3500), 
            "_id" : ObjectId("5a6cc1b1054c1316e752b817"), 
            "people" : [
                NumberInt(1), 
                NumberInt(0)
            ]
        }
    ], 
    "totalMark" : NumberInt(0), 
    "conductedExc" : NumberInt(0), 
    "__v" : NumberInt(0)
}
{ 
    "_id" : ObjectId("5a6ccf6f054c1316e752b81a"), 
    "guide" : ObjectId("5a6cbb9b054c1316e752b800"), 
    "place" : ObjectId("5a6ccdc9054c1316e752b819"), 
    "lasting" : NumberInt(1), 
    "prices" : [
        {
            "price" : NumberInt(12000), 
            "_id" : ObjectId("5a6ccf6f054c1316e752b81c"), 
            "people" : [
                NumberInt(1), 
                NumberInt(1)
            ]
        }, 
        {
            "price" : NumberInt(12000), 
            "_id" : ObjectId("5a6ccf6f054c1316e752b81b"), 
            "people" : [
                NumberInt(2), 
                NumberInt(7)
            ]
        }
    ], 
    "totalMark" : NumberInt(0), 
    "conductedExc" : NumberInt(0), 
    "__v" : NumberInt(0)
}
{ 
    "_id" : ObjectId("5a6ef07b054c1316e752b81f"), 
    "guide" : ObjectId("5a6cbb9b054c1316e752b800"), 
    "place" : ObjectId("5a26b84fcdd37c7bdf59dcbe"), 
    "lasting" : NumberInt(1), 
    "prices" : [
        {
            "price" : NumberInt(8000), 
            "_id" : ObjectId("5a6ef07b054c1316e752b820"), 
            "people" : [
                NumberInt(1), 
                NumberInt(7)
            ]
        }
    ], 
    "totalMark" : NumberInt(0), 
    "conductedExc" : NumberInt(0), 
    "__v" : NumberInt(0)
}
{ 
    "_id" : ObjectId("5a6ef948054c1316e752b822"), 
    "guide" : ObjectId("5a6cbb9b054c1316e752b800"), 
    "place" : ObjectId("5a6ef8b0054c1316e752b821"), 
    "lasting" : 3.5, 
    "prices" : [
        {
            "price" : NumberInt(7000), 
            "_id" : ObjectId("5a6ef948054c1316e752b823"), 
            "people" : [
                NumberInt(1), 
                NumberInt(7)
            ]
        }
    ], 
    "totalMark" : NumberInt(0), 
    "conductedExc" : NumberInt(0), 
    "__v" : NumberInt(0)
}
{ 
    "_id" : ObjectId("5a6eff37054c1316e752b825"), 
    "guide" : ObjectId("5a6cbb9b054c1316e752b800"), 
    "place" : ObjectId("5a6efe77054c1316e752b824"), 
    "lasting" : 3.5, 
    "prices" : [
        {
            "price" : NumberInt(7000), 
            "_id" : ObjectId("5a6eff37054c1316e752b826"), 
            "people" : [
                NumberInt(1), 
                NumberInt(7)
            ]
        }
    ], 
    "totalMark" : NumberInt(0), 
    "conductedExc" : NumberInt(0), 
    "__v" : NumberInt(0)
}
{ 
    "_id" : ObjectId("5a6f561c054c1316e752b827"), 
    "guide" : ObjectId("5a6ee159054c1316e752b81d"), 
    "place" : ObjectId("5a251e99cdd37c7bdf59dcb5"), 
    "lasting" : NumberInt(2), 
    "prices" : [
        {
            "price" : NumberInt(350), 
            "_id" : ObjectId("5a6f561c054c1316e752b828"), 
            "people" : [
                NumberInt(1), 
                NumberInt(0)
            ]
        }
    ], 
    "totalMark" : NumberInt(0), 
    "conductedExc" : NumberInt(0), 
    "__v" : NumberInt(0)
}
{ 
    "_id" : ObjectId("5a6f56d2054c1316e752b829"), 
    "guide" : ObjectId("5a6ee159054c1316e752b81d"), 
    "place" : ObjectId("5a1fd17dcdd37c7bdf59dcaa"), 
    "lasting" : NumberInt(2), 
    "prices" : [
        {
            "price" : NumberInt(350), 
            "_id" : ObjectId("5a6f56d2054c1316e752b82a"), 
            "people" : [
                NumberInt(1), 
                NumberInt(1)
            ]
        }
    ], 
    "totalMark" : NumberInt(0), 
    "conductedExc" : NumberInt(0), 
    "__v" : NumberInt(0)
}
{ 
    "_id" : ObjectId("5a6f56ef054c1316e752b82b"), 
    "guide" : ObjectId("5a6ee159054c1316e752b81d"), 
    "place" : ObjectId("5a251c92cdd37c7bdf59dcb2"), 
    "lasting" : NumberInt(2), 
    "prices" : [
        {
            "price" : NumberInt(350), 
            "_id" : ObjectId("5a6f56ef054c1316e752b82c"), 
            "people" : [
                NumberInt(1), 
                NumberInt(1)
            ]
        }
    ], 
    "totalMark" : NumberInt(0), 
    "conductedExc" : NumberInt(0), 
    "__v" : NumberInt(0)
}
{ 
    "_id" : ObjectId("5a6f5710054c1316e752b82d"), 
    "guide" : ObjectId("5a6ee159054c1316e752b81d"), 
    "place" : ObjectId("5a251edacdd37c7bdf59dcb6"), 
    "lasting" : NumberInt(2), 
    "prices" : [
        {
            "price" : NumberInt(350), 
            "_id" : ObjectId("5a6f5710054c1316e752b82e"), 
            "people" : [
                NumberInt(1), 
                NumberInt(1)
            ]
        }
    ], 
    "totalMark" : NumberInt(0), 
    "conductedExc" : NumberInt(0), 
    "__v" : NumberInt(0)
}
{ 
    "_id" : ObjectId("5a6f5730054c1316e752b82f"), 
    "guide" : ObjectId("5a6ee159054c1316e752b81d"), 
    "place" : ObjectId("5a251791cdd37c7bdf59dcac"), 
    "lasting" : NumberInt(2), 
    "prices" : [
        {
            "price" : NumberInt(350), 
            "_id" : ObjectId("5a6f5730054c1316e752b830"), 
            "people" : [
                NumberInt(1), 
                NumberInt(1)
            ]
        }
    ], 
    "totalMark" : NumberInt(0), 
    "conductedExc" : NumberInt(0), 
    "__v" : NumberInt(0)
}
{ 
    "_id" : ObjectId("5a70379d054c1316e752b833"), 
    "guide" : ObjectId("5a575faf0bd7390df779c109"), 
    "place" : ObjectId("5a251791cdd37c7bdf59dcac"), 
    "lasting" : 1.5, 
    "prices" : [
        {
            "price" : NumberInt(1000), 
            "_id" : ObjectId("5a70379d054c1316e752b834"), 
            "people" : [
                NumberInt(1), 
                NumberInt(5)
            ]
        }
    ], 
    "totalMark" : NumberInt(0), 
    "conductedExc" : NumberInt(0), 
    "__v" : NumberInt(0)
}
]